[
 {
  "researchItems": {
   "indexFrom": 0,
   "pageIndex": 0,
   "pageSize": 10,
   "totalCount": 793,
   "totalPages": 80,
   "items": [
    {
     "title": "INTUCH (Aug 7,2024): 2Q24 profit strong. High dividend ",
     "url": "https://www.settrade.com/th/research/analyst-research/59219",
     "cateName": "หุ้น",
     "subCateName": "หุ้นรายตัว",
     "startDate": "",
     "source": "ASP"
    },
    {
     "title": "Night Gold Bullion : 08/08/2024",
     "url": "https://www.settrade.com/th/research/analyst-research/59218",
     "cateName": "อนุพันธ์",
     "subCateName": "Gold",
     "startDate": "",
     "source": "HGF"
    },
    {
     "title": "Night Gold Futures : 08/08/2024",
     "url": "https://www.settrade.com/th/research/analyst-research/59217",
     "cateName": "อนุพันธ์",
     "subCateName": "Gold",
     "startDate": "",
     "source": "HGF"
    },
    {
     "title": "Chart Perspective Afternoon : 08/08/2024",
     "url": "https://www.settrade.com/th/research/analyst-research/59216",
     "cateName": "หุ้น",
     "subCateName": "เทคนิค",
     "startDate": "",
     "source": "YUANTA"
    },
    {
     "title": "Derivatives : 08/08/2024",
     "url": "https://www.settrade.com/th/research/analyst-research/59215",
     "cateName": "อนุพันธ์",
     "subCateName": "SET50 Index",
     "startDate": "",
     "source": "YUANTA"
    },
    {
     "title": "SELL (Maintain) : บริษัท แอล.พี.เอ็น.ดีเวลลอปเมนท์ จำกัด (มหาชน) - LPN\t",
     "url": "https://www.settrade.com/th/research/analyst-research/59214",
     "cateName": "หุ้น",
     "subCateName": "หุ้นรายตัว",
     "startDate": "",
     "source": "YUANTA"
    },
    {
     "title": "UTILITIES SECTOR : เผชิญหน้ากับความท้าทายและการคว้าโอกาส",
     "url": "https://www.settrade.com/th/research/analyst-research/59213",
     "cateName": "หุ้น",
     "subCateName": "ภาวะตลาด",
     "startDate": "",
     "source": "KSS"
    },
    {
     "title": "GPSC : Strong 2Q24F core profit priced-in  (En)",
     "url": "https://www.settrade.com/th/research/analyst-research/59212",
     "cateName": "หุ้น",
     "subCateName": "หุ้นรายตัว",
     "startDate": "",
     "source": "KSS"
    },
    {
     "title": "CKP : คาดกำไรกลับมาเป็นบวกใน 2Q24F",
     "url": "https://www.settrade.com/th/research/analyst-research/59211",
     "cateName": "หุ้น",
     "subCateName": "หุ้นรายตัว",
     "startDate": "",
     "source": "KSS"
    },
    {
     "title": "BGRIM : 2Q24F หนุนจากปริมาณการผลิตที่เพิ่มและต้นทุนก๊าซที่ลดลง",
     "url": "https://www.settrade.com/th/research/analyst-research/59210",
     "cateName": "หุ้น",
     "subCateName": "หุ้นรายตัว",
     "startDate": "",
     "source": "KSS"
    }
   ]
  }
 },
 {
  "researchItems": {
   "indexFrom": 0,
   "pageIndex": 1,
   "pageSize": 10,
   "totalCount": 793,
   "totalPages": 80,
   "items": [
    {
     "title": "GPSC: คาดกำไรหลัก 2Q24F รวมอยู่ในราคาแล้ว",
     "url": "https://www.settrade.com/th/research/analyst-research/59209",
     "cateName": "หุ้น",
     "subCateName": "หุ้นรายตัว",
     "startDate": "",
     "source": "KSS"
    },
    {
     "title": "Market Talk: Swinging under 1,300 pts - 08/08/24",
     "url": "https://www.settrade.com/th/research/analyst-research/59208",
     "cateName": "หุ้น",
     "subCateName": "ภาวะตลาด",
     "startDate": "",
     "source": "ASP"
    },
    {
     "title": "ทริสเรทติ้งยกเลิกอันดับเครดิตองค์กร “บ. ฐิติกร”",
     "url": "https://www.settrade.com/th/research/analyst-research/59207",
     "cateName": "หุ้น",
     "subCateName": "หุ้นรายตัว",
     "startDate": "",
     "source": "TRIS"
    },
    {
     "title": "TRIS Rating Cancels Company Rating on “TK”",
     "url": "https://www.settrade.com/th/research/analyst-research/59206",
     "cateName": "หุ้น",
     "subCateName": "หุ้นรายตัว",
     "startDate": "",
     "source": "TRIS"
    },
    {
     "title": "BCPG : การจำหน่ายโรงไฟฟ้าที่ญี่ปุ่นหนุนผลประกอบการ 2Q24F ",
     "url": "https://www.settrade.com/th/research/analyst-research/59205",
     "cateName": "หุ้น",
     "subCateName": "หุ้นรายตัว",
     "startDate": "",
     "source": "KSS"
    },
    {
     "title": "EGCO : คาดกำไรหลักจะลดลง yoy ใน 2Q24F",
     "url": "https://www.settrade.com/th/research/analyst-research/59204",
     "cateName": "หุ้น",
     "subCateName": "หุ้นรายตัว",
     "startDate": "",
     "source": "KSS"
    },
    {
     "title": "Stock of the town PM - 8 Aug 2024 ",
     "url": "https://www.settrade.com/th/research/analyst-research/59203",
     "cateName": "หุ้น",
     "subCateName": "ภาวะตลาด",
     "startDate": "",
     "source": "KSS"
    },
    {
     "title": "Mid Day Telling Board : 08/08/2024",
     "url": "https://www.settrade.com/th/research/analyst-research/59202",
     "cateName": "หุ้น",
     "subCateName": "ภาวะตลาด",
     "startDate": "",
     "source": "MST"
    },
    {
     "title": "At the Market (MEB) (ATM) - 08/08/2024",
     "url": "https://www.settrade.com/th/research/analyst-research/59201",
     "cateName": "หุ้น",
     "subCateName": "ภาวะตลาด",
     "startDate": "",
     "source": "MST"
    },
    {
     "title": "ส่องตลาด...ภาคบ่าย 8 ส.ค. 2567",
     "url": "https://www.settrade.com/th/research/analyst-research/59200",
     "cateName": "หุ้น",
     "subCateName": "ภาวะตลาด",
     "startDate": "",
     "source": "PST"
    }
   ]
  }
 },
 {
  "researchItems": {
   "indexFrom": 0,
   "pageIndex": 2,
   "pageSize": 10,
   "totalCount": 793,
   "totalPages": 80,
   "items": [
    {
     "title": "UTILITIES SECTOR : Navigating challenges, seizing opportunities (En)",
     "url": "https://www.settrade.com/th/research/analyst-research/59199",
     "cateName": "หุ้น",
     "subCateName": "ภาวะตลาด",
     "startDate": "",
     "source": "KSS"
    },
    {
     "title": "Trading Ideas : 08/08/2024",
     "url": "https://www.settrade.com/th/research/analyst-research/59198",
     "cateName": "หุ้น",
     "subCateName": "ภาวะตลาด",
     "startDate": "",
     "source": "LHS"
    },
    {
     "title": "Thanachart P.M. Strategy : 08 August 2024\t",
     "url": "https://www.settrade.com/th/research/analyst-research/59197",
     "cateName": "หุ้น",
     "subCateName": "ภาวะตลาด",
     "startDate": "",
     "source": "THANACHART"
    },
    {
     "title": "YLG BULLION AND FUTURES - GOLD Afternoon Update : 08/08/2024 ",
     "url": "https://www.settrade.com/th/research/analyst-research/59196",
     "cateName": "อนุพันธ์",
     "subCateName": "Gold",
     "startDate": "",
     "source": "YLG"
    },
    {
     "title": "AFTERNOON CALL - ACTION NOTES : 08 August 2024\t",
     "url": "https://www.settrade.com/th/research/analyst-research/59194",
     "cateName": "หุ้น",
     "subCateName": "ภาวะตลาด",
     "startDate": "",
     "source": "GLOBLEX"
    },
    {
     "title": "วิเคราะห์ตลาดภาคบ่าย Afternoon Trade 08 ส.ค. 2567\t",
     "url": "https://www.settrade.com/th/research/analyst-research/59195",
     "cateName": "หุ้น",
     "subCateName": "ภาวะตลาด",
     "startDate": "",
     "source": "ASL"
    },
    {
     "title": "BUMRUNGRAD HOSPITAL (BH TB) - 2Q24 results at first glance; Maintain BUY TP THB310.00",
     "url": "https://www.settrade.com/th/research/analyst-research/59193",
     "cateName": "หุ้น",
     "subCateName": "หุ้นรายตัว",
     "startDate": "",
     "source": "FSSIA"
    },
    {
     "title": "PRARAM 9 HOSPITAL (PR9 TB) - 2Q24 results at first glance; Maintain BUY TP THB24.00",
     "url": "https://www.settrade.com/th/research/analyst-research/59192",
     "cateName": "หุ้น",
     "subCateName": "หุ้นรายตัว",
     "startDate": "",
     "source": "FSSIA"
    },
    {
     "title": "BUY (Maintain) : บริษัท ไอ ทู เอ็นเตอร์ไพรซ์ จำกัด (มหาชน) - I2",
     "url": "https://www.settrade.com/th/research/analyst-research/59191",
     "cateName": "หุ้น",
     "subCateName": "หุ้นรายตัว",
     "startDate": "",
     "source": "YUANTA"
    },
    {
     "title": "BUY (Maintain) : บริษัท ไทยยูเนี่ยน กรุ๊ป จำกัด (มหาชน) - TU\t",
     "url": "https://www.settrade.com/th/research/analyst-research/59190",
     "cateName": "หุ้น",
     "subCateName": "หุ้นรายตัว",
     "startDate": "",
     "source": "YUANTA"
    }
   ]
  }
 }
]